{
	"id" : "homePage",
	"videoURL" : "http://digital-solution.co.in/rndo/assets/video/VID-20210222-WA0000.mp4",
	"howItWorks" : [
        {
            "icon" : "./assets/img/step-1.png",
            "name" : "Get in touch",
            "description" : "Test Post a job to tell us about your project. We'll quickly match you with the right freelancers find place best."
        },
        {
            "icon" : "./assets/img/step-2.png",
            "name" : "Sign up",
            "description" : "Post a job to tell us about your project. We'll quickly match you with the right freelancers find place best."
        },
        {
            "icon" : "./assets/img/step-2.png",
            "name" : "Accelerate your growth",
            "description" : "Post a job to tell us about your project. We'll quickly match you with the right freelancers find place best."
        }                       
    ],
	"bannerText" : [
        {
            "bgColor" : "#008B8B",
            "name" : "Find innovative options here to match your needs for new or improved  technology solutions.",
            "description" : "RNDO provides truly impartial expertise, with global reach and cross-sector networks, that deliver a wide trawl of options suited to your needs. Multi-disciplinary engineering teams are also available to help  identify and resolve your technical challenges.",
            "buttonName" : "Hire Us",
            "buttonLink" : "/contactus"
        },
        {
            "bgColor" : "#3c9cb2",
            "name" : "Do you offer an innovative technology idea or solution?",
            "description" : "RNDO enables innovation breakthroughs by bridging the “innovation gap”. We are a supportive pulley in areas such as funding, mass or targeted sector visibility, bespoke B2B matching and scale up resourcing.",
            "buttonName" : "Join Us",
            "buttonLink" : "/contactus"            
        },
        {
            "bgColor" : "#3c9cb2",
            "name" : "Ask the expert  - Useful technical and marketing advice.",
            "description" : "Save time and money with our quick enquiry service - affordable access to experts who can support informed technical and commercial decision making.",
            "buttonName" : "Just a click away",
            "buttonLink" : "/contactus"            
        },
        {
            "bgColor" : "#008B8B",
            "name" : "Training",
            "description" : "RNDO is proud of its commitment to affordable courses that are universally accessible. Our internationally recognised trainers deliver “fit for purpose” outcomes, ranging from basic awareness, to in depth knowledge and technology transfer.",
            "buttonName" : "Join Us",
            "buttonLink" : "/contactus"            
        }                                
    ],
    "featuredCategoryIds" :  [
        "aerospace", "automotive","energy","education-training", "aerospace"
    ],
    "featuredProductIds" :  [
        1,1,1
    ]	
}